<?xml version="1.0" encoding="utf-8"?>
<!-- Generator: Adobe Illustrator 25.2.3, SVG Export Plug-In . SVG Version: 6.00 Build 0)  -->
<svg version="1.1" id="Capa_1" xmlns="http://www.w3.org/2000/svg" xmlns:xlink="http://www.w3.org/1999/xlink" x="0px" y="0px"
	 viewBox="0 0 19 25" style="enable-background:new 0 0 19 25;" xml:space="preserve">
<style type="text/css">
	.st0{fill:#14BB6A;}
</style>
<path class="st0" d="M9.5,4.7c-2.6,0-4.8,2.1-4.8,4.7c0,2.6,2.1,4.7,4.8,4.7c2.6,0,4.8-2.1,4.8-4.7C14.2,6.8,12.1,4.7,9.5,4.7z
	 M9.5,12.5c-1.7,0-3.2-1.4-3.2-3.1c0-1.7,1.4-3.1,3.2-3.1c1.7,0,3.2,1.4,3.2,3.1C12.7,11.1,11.2,12.5,9.5,12.5z M9.5,0
	C4.3,0,0,4.2,0,9.4c0,3.8,1.3,4.8,8.5,15.1c0.5,0.7,1.5,0.7,2,0C17.7,14.2,19,13.2,19,9.4C19,4.2,14.7,0,9.5,0z M9.5,23.1
	C2.6,13.3,1.6,12.5,1.6,9.4c0-2.1,0.8-4,2.3-5.5c1.5-1.5,3.5-2.3,5.6-2.3c2.1,0,4.1,0.8,5.6,2.3c1.5,1.5,2.3,3.4,2.3,5.5
	C17.4,12.5,16.4,13.3,9.5,23.1z"/>
</svg>
