<svg width="68" height="68" viewBox="0 0 68 68" fill="none" xmlns="http://www.w3.org/2000/svg">
<path d="M34.0968 56.0322H11.9678V33.9032H34.0968V56.0322Z" fill="white" stroke="#195EA5" stroke-width="2"/>
<path d="M15.3549 61.6211V57.0322H13.1613V61.6211C11.888 62.0752 10.9678 63.2816 10.9678 64.7096C10.9678 66.5237 12.444 68 14.2581 68C16.0722 68 17.5484 66.5237 17.5484 64.7096C17.5484 63.2816 16.6282 62.0752 15.3549 61.6211ZM14.2581 65.8064C13.6538 65.8064 13.1613 65.3151 13.1613 64.7096C13.1613 64.1042 13.6538 63.6129 14.2581 63.6129C14.8624 63.6129 15.3549 64.1042 15.3549 64.7096C15.3549 65.3151 14.8624 65.8064 14.2581 65.8064Z" fill="#195EA5"/>
<path d="M24.1293 61.6211V57.0322H21.9357V61.6211C20.6624 62.0752 19.7422 63.2816 19.7422 64.7096C19.7422 66.5237 21.2184 68 23.0325 68C24.8466 68 26.3228 66.5237 26.3228 64.7096C26.3228 63.2816 25.4026 62.0752 24.1293 61.6211ZM23.0325 65.8064C22.4282 65.8064 21.9357 65.3151 21.9357 64.7096C21.9357 64.1042 22.4282 63.6129 23.0325 63.6129C23.6368 63.6129 24.1293 64.1042 24.1293 64.7096C24.1293 65.3151 23.6368 65.8064 23.0325 65.8064Z" fill="#195EA5"/>
<path d="M32.9037 61.6211V57.0322H30.7101V61.6211C29.4368 62.0752 28.5166 63.2816 28.5166 64.7096C28.5166 66.5237 29.9929 68 31.8069 68C33.621 68 35.0972 66.5237 35.0972 64.7096C35.0972 63.2816 34.1771 62.0752 32.9037 61.6211ZM31.8069 65.8064C31.2026 65.8064 30.7101 65.3151 30.7101 64.7096C30.7101 64.1042 31.2026 63.6129 31.8069 63.6129C32.4112 63.6129 32.9037 64.1042 32.9037 64.7096C32.9037 65.3151 32.4112 65.8064 31.8069 65.8064Z" fill="#195EA5"/>
<path d="M42.7741 57.0323C44.5882 57.0323 46.0644 55.556 46.0644 53.742C46.0644 51.9279 44.5882 50.4517 42.7741 50.4517C41.3461 50.4517 40.1396 51.3719 39.6856 52.6452H35.0967V54.8388H39.6856C40.1396 56.1121 41.3461 57.0323 42.7741 57.0323ZM42.7741 52.6452C43.3784 52.6452 43.8709 53.1366 43.8709 53.742C43.8709 54.3474 43.3784 54.8388 42.7741 54.8388C42.1698 54.8388 41.6773 54.3474 41.6773 53.742C41.6773 53.1366 42.1698 52.6452 42.7741 52.6452Z" fill="#195EA5"/>
<path d="M35.0967 37.2903H39.6856C40.1396 38.5637 41.3461 39.4838 42.7741 39.4838C44.5882 39.4838 46.0644 38.0076 46.0644 36.1935C46.0644 34.3795 44.5882 32.9032 42.7741 32.9032C41.3461 32.9032 40.1396 33.8234 39.6856 35.0967H35.0967V37.2903ZM42.7741 35.0967C43.3784 35.0967 43.8709 35.5881 43.8709 36.1935C43.8709 36.7989 43.3784 37.2903 42.7741 37.2903C42.1698 37.2903 41.6773 36.7989 41.6773 36.1935C41.6773 35.5881 42.1698 35.0967 42.7741 35.0967Z" fill="#195EA5"/>
<path d="M10.9677 54.8388V52.6452H6.37884C5.92477 51.3719 4.71832 50.4517 3.29032 50.4517C1.47626 50.4517 0 51.9279 0 53.742C0 55.556 1.47626 57.0323 3.29032 57.0323C4.71832 57.0323 5.92477 56.1121 6.37884 54.8388H10.9677ZM3.29032 54.8388C2.686 54.8388 2.19355 54.3474 2.19355 53.742C2.19355 53.1366 2.686 52.6452 3.29032 52.6452C3.89465 52.6452 4.3871 53.1366 4.3871 53.742C4.3871 54.3474 3.89465 54.8388 3.29032 54.8388Z" fill="#195EA5"/>
<path d="M3.29032 39.4838C4.71832 39.4838 5.92477 38.5637 6.37884 37.2903H10.9677V35.0967H6.37884C5.92477 33.8234 4.71832 32.9032 3.29032 32.9032C1.47626 32.9032 0 34.3795 0 36.1935C0 38.0076 1.47626 39.4838 3.29032 39.4838ZM3.29032 35.0967C3.89465 35.0967 4.3871 35.5881 4.3871 36.1935C4.3871 36.7989 3.89465 37.2903 3.29032 37.2903C2.686 37.2903 2.19355 36.7989 2.19355 36.1935C2.19355 35.5881 2.686 35.0967 3.29032 35.0967Z" fill="#195EA5"/>
<path d="M42.7741 41.6774C41.3461 41.6774 40.1396 42.5976 39.6856 43.8709H35.0967V46.0645H39.6856C40.1396 47.3378 41.3461 48.258 42.7741 48.258C44.5882 48.258 46.0644 46.7818 46.0644 44.9677C46.0644 43.1536 44.5882 41.6774 42.7741 41.6774ZM42.7741 46.0645C42.1698 46.0645 41.6773 45.5731 41.6773 44.9677C41.6773 44.3623 42.1698 43.8709 42.7741 43.8709C43.3784 43.8709 43.8709 44.3623 43.8709 44.9677C43.8709 45.5731 43.3784 46.0645 42.7741 46.0645Z" fill="#195EA5"/>
<path d="M3.29032 48.258C4.71832 48.258 5.92477 47.3378 6.37884 46.0645H10.9677V43.8709H6.37884C5.92477 42.5976 4.71832 41.6774 3.29032 41.6774C1.47626 41.6774 0 43.1536 0 44.9677C0 46.7818 1.47626 48.258 3.29032 48.258ZM3.29032 43.8709C3.89465 43.8709 4.3871 44.3623 4.3871 44.9677C4.3871 45.5731 3.89465 46.0645 3.29032 46.0645C2.686 46.0645 2.19355 45.5731 2.19355 44.9677C2.19355 44.3623 2.686 43.8709 3.29032 43.8709Z" fill="#195EA5"/>
<path d="M15.3549 32.9032V28.3143C16.6282 27.8602 17.5484 26.6537 17.5484 25.2257C17.5484 23.4117 16.0722 21.9354 14.2581 21.9354C12.444 21.9354 10.9678 23.4117 10.9678 25.2257C10.9678 26.6537 11.888 27.8602 13.1613 28.3143V32.9032H15.3549ZM14.2581 24.129C14.8624 24.129 15.3549 24.6203 15.3549 25.2257C15.3549 25.8312 14.8624 26.3225 14.2581 26.3225C13.6538 26.3225 13.1613 25.8312 13.1613 25.2257C13.1613 24.6203 13.6538 24.129 14.2581 24.129Z" fill="#195EA5"/>
<path d="M23.0325 21.9354C21.2184 21.9354 19.7422 23.4117 19.7422 25.2257C19.7422 26.6537 20.6624 27.8602 21.9357 28.3143V32.9032H24.1293V28.3143C25.4026 27.8602 26.3228 26.6537 26.3228 25.2257C26.3228 23.4117 24.8466 21.9354 23.0325 21.9354ZM23.0325 26.3225C22.4282 26.3225 21.9357 25.8312 21.9357 25.2257C21.9357 24.6203 22.4282 24.129 23.0325 24.129C23.6368 24.129 24.1293 24.6203 24.1293 25.2257C24.1293 25.8312 23.6368 26.3225 23.0325 26.3225Z" fill="#195EA5"/>
<path d="M31.8069 21.9354C29.9929 21.9354 28.5166 23.4117 28.5166 25.2257C28.5166 26.6537 29.4368 27.8602 30.7101 28.3143V32.9032H32.9037V28.3143C34.1771 27.8602 35.0972 26.6537 35.0972 25.2257C35.0972 23.4117 33.621 21.9354 31.8069 21.9354ZM31.8069 26.3225C31.2026 26.3225 30.7101 25.8312 30.7101 25.2257C30.7101 24.6203 31.2026 24.129 31.8069 24.129C32.4112 24.129 32.9037 24.6203 32.9037 25.2257C32.9037 25.8312 32.4112 26.3225 31.8069 26.3225Z" fill="#195EA5"/>
<path d="M63.0588 17.5484C62.6497 15.9625 62.0202 14.4478 61.1789 13.0264L64.6777 9.52768L58.4732 3.32323L54.9745 6.82084C53.5531 5.97961 52.0373 5.35006 50.4514 4.94097V0H41.6772V4.94097C40.0913 5.35006 38.5755 5.97961 37.1541 6.82084L33.6554 3.32323L27.452 9.52768L30.9507 13.0264C30.1084 14.4478 29.4789 15.9625 29.0709 17.5484H25.2256V19.7419H30.84L31.0187 18.8634C31.4081 16.9419 32.1616 15.1289 33.2584 13.4728L33.753 12.7259L30.5537 9.52658L33.6565 6.42381L36.8558 9.6231L37.6038 9.12845C39.2599 8.03168 41.0729 7.27819 42.9933 6.88884L43.8707 6.71006V2.19355H48.2578V6.71006L49.1364 6.88884C51.0568 7.27819 52.8698 8.03168 54.5259 9.12845L55.2739 9.6231L58.4732 6.42381L61.576 9.52658L58.3767 12.7259L58.8713 13.4728C59.9681 15.1289 60.7216 16.9419 61.1109 18.8634L61.2886 19.7419H65.8062V24.129H61.2886L61.1098 25.0075C60.7205 26.9291 59.967 28.7421 58.8702 30.3982L58.3756 31.1451L61.5749 34.3444L58.4721 37.4472L55.2728 34.2479L54.5248 34.7425C52.8687 35.8393 51.0557 36.5928 49.1353 36.9821L48.2578 37.1609V42.7742H50.4514V38.93C52.0373 38.5209 53.5531 37.8914 54.9745 37.0501L58.4732 40.5477L64.6777 34.3433L61.1789 30.8446C62.0213 29.4232 62.6508 27.9085 63.0588 26.3226H67.9998V17.5484H63.0588Z" fill="#195EA5"/>
<path d="M46.0644 30.7097V32.9033C52.112 32.9033 57.0322 27.9831 57.0322 21.9355C57.0322 15.8879 52.112 10.9678 46.0644 10.9678C40.0168 10.9678 35.0967 15.8879 35.0967 21.9355H37.2902C37.2902 17.0976 41.2266 13.1613 46.0644 13.1613C50.9023 13.1613 54.8386 17.0976 54.8386 21.9355C54.8386 26.7734 50.9023 30.7097 46.0644 30.7097Z" fill="#195EA5"/>
<path d="M30.7093 37.2903H15.3545V39.4838H30.7093V37.2903Z" fill="#195EA5"/>
<path d="M30.7101 50.4517H28.5166V52.6452H30.7101V50.4517Z" fill="#195EA5"/>
<path d="M26.3222 50.4517H15.3545V52.6452H26.3222V50.4517Z" fill="#195EA5"/>
<path d="M40.3623 65.1682L40.7977 67.3189C54.1893 64.6 64.5999 54.1906 67.3177 40.7989L65.168 40.3624C62.6268 52.8898 52.8886 62.6269 40.3623 65.1682Z" fill="#195EA5"/>
<path d="M27.6382 2.8318L27.2027 0.68103C13.81 3.39993 3.40054 13.8094 0.681641 27.201L2.83132 27.6375C5.37364 15.1102 15.1119 5.37303 27.6382 2.8318Z" fill="#195EA5"/>
</svg>
