<svg width="28" height="22" viewBox="0 0 28 22" fill="none" xmlns="http://www.w3.org/2000/svg">
<path d="M24.7109 5.6875V3L14.0234 9.6875L3.33594 3V5.6875L14.0234 12.3125L24.7109 5.6875ZM24.7109 0.3125C25.4193 0.3125 26.0234 0.583333 26.5234 1.125C27.0651 1.66667 27.3359 2.29167 27.3359 3V19C27.3359 19.7083 27.0651 20.3333 26.5234 20.875C26.0234 21.4167 25.4193 21.6875 24.7109 21.6875H3.33594C2.6276 21.6875 2.0026 21.4167 1.46094 20.875C0.960938 20.3333 0.710938 19.7083 0.710938 19V3C0.710938 2.29167 0.960938 1.66667 1.46094 1.125C2.0026 0.583333 2.6276 0.3125 3.33594 0.3125H24.7109Z" fill="white"/>
</svg>
