<svg width="12" height="15" viewBox="0 0 12 15" fill="none" xmlns="http://www.w3.org/2000/svg">
<path d="M8.34434 3.31218C8.34434 4.63575 7.26674 6.94322 5.94317 6.94322C4.61959 6.94322 3.54199 4.63185 3.54199 3.30437C3.56699 2.6848 3.8307 2.09893 4.27791 1.6694C4.72511 1.23987 5.32114 1 5.94121 1C6.56128 1 7.15731 1.23987 7.60452 1.6694C8.05173 2.09893 8.31544 2.6848 8.34043 3.30437L8.34434 3.31218Z" stroke="black" stroke-linecap="round" stroke-linejoin="round"/>
<path d="M1 13.6977C1 12.3868 1.52077 11.1295 2.44774 10.2026C3.37472 9.27559 4.63196 8.75482 5.9429 8.75482C7.25384 8.75482 8.51109 9.27559 9.43806 10.2026C10.365 11.1295 10.8858 12.3868 10.8858 13.6977" stroke="black" stroke-linecap="round" stroke-linejoin="round"/>
</svg>
