<svg width="74" height="74" viewBox="0 0 74 74" fill="none" xmlns="http://www.w3.org/2000/svg">
<path d="M74 14.257V2.37617H59.6774V7.12851H54.9032V23.7617H52.5161V0H22.1833L9.54839 12.5771V34.1289C8.06719 35.8041 7.16129 37.9938 7.16129 40.3949C7.16129 43.3627 8.53626 46.0145 10.6835 47.7598C4.61068 48.9039 0 54.2182 0 60.5923V73.6613H27.4516V58.4193C27.4516 57.8395 27.6784 57.2942 28.0914 56.8831L35.107 49.8996H52.5161V26.1379H54.9032V42.771H59.6774V47.5234H74V35.6425H59.6774V40.3949H57.2903V26.1379H59.6774V30.8902H74V19.0094H59.6774V23.7617H57.2903V9.50468H59.6774V14.257H74ZM62.0645 4.75234H71.6129V11.8808H62.0645V4.75234ZM21.4839 4.05612V11.8808H13.6232L21.4839 4.05612ZM9.54839 40.3949C9.54839 36.4635 12.7602 33.2664 16.7097 33.2664C20.6591 33.2664 23.871 36.4635 23.871 40.3949C23.871 44.3263 20.6591 47.5234 16.7097 47.5234C12.7602 47.5234 9.54839 44.3263 9.54839 40.3949ZM20.239 49.2188C19.9884 50.9427 18.5096 52.2757 16.7097 52.2757C14.9098 52.2757 13.431 50.9427 13.1804 49.2188C14.2736 49.6536 15.4624 49.8996 16.7097 49.8996C17.9569 49.8996 19.1457 49.6536 20.239 49.2188ZM26.4037 55.2032C25.5395 56.0633 25.0645 57.2051 25.0645 58.4193V71.2851H8.35484V57.0281H5.96774V71.2851H2.3871V60.5923C2.3871 55.4455 6.05965 51.1387 10.9317 50.1265C11.5738 52.7177 13.912 54.6519 16.7097 54.6519C19.8523 54.6519 22.4077 52.2128 22.6333 49.1404C25.795 48.3657 28.7335 46.7381 31.0394 44.4427L37.4941 38.0187L38.1936 37.3225L41.6286 33.9032C42.0415 33.4921 42.5894 33.2664 43.1718 33.2664C44.3761 33.2664 45.3548 34.2406 45.3548 35.4394C45.3548 36.0192 45.1281 36.5645 44.7151 36.9756L26.4037 55.2032ZM35.8065 35.6425H33.4194V26.1379H35.8065V35.6425ZM42.9677 30.9104V16.6332H45.3548V31.4676C44.7032 31.1112 43.9667 30.8902 43.1718 30.8902C43.1026 30.8902 43.0358 30.9068 42.9677 30.9104ZM50.129 47.5234H37.4941L46.4028 38.6555C47.2669 37.7953 47.7419 36.6536 47.7419 35.4394V14.257H40.5806V31.6993C40.3551 31.8549 40.139 32.026 39.9409 32.222L38.1936 33.9626V23.7617H31.0323V38.0187H34.1188L29.3529 42.7627C27.9183 44.1908 26.2008 45.3195 24.3329 46.0941C25.536 44.5033 26.2581 42.5346 26.2581 40.3949C26.2581 39.5727 26.1423 38.7803 25.9442 38.0187H28.6452V16.6332H21.4839V32.1757C20.0779 31.3631 18.4499 30.8902 16.7097 30.8902C14.9695 30.8902 13.3415 31.3631 11.9355 32.1757V14.257H23.871V2.37617H50.129V47.5234ZM23.871 34.1289V19.0094H26.2581V35.6425H24.9666C24.6504 35.102 24.2839 34.5958 23.871 34.1289ZM62.0645 38.0187H71.6129V45.1472H62.0645V38.0187ZM62.0645 21.3855H71.6129V28.514H62.0645V21.3855Z" fill="#10FB60"/>
<path d="M64.4517 7.12854H69.2259V9.50464H64.4517V7.12854Z" fill="#10FB60"/>
<path d="M64.4517 23.7616H69.2259V26.1378H64.4517V23.7616Z" fill="#10FB60"/>
<path d="M64.4517 40.3949H69.2259V42.771H64.4517V40.3949Z" fill="#10FB60"/>
<path d="M45.3547 4.75244H47.7419V7.12854H45.3547V4.75244Z" fill="#10FB60"/>
<path d="M40.5806 4.75244H42.9677V7.12854H40.5806V4.75244Z" fill="#10FB60"/>
<path d="M26.2581 4.75244H38.1935V7.12854H26.2581V4.75244Z" fill="#10FB60"/>
<path d="M26.2581 9.50464H47.7419V11.8809H26.2581V9.50464Z" fill="#10FB60"/>
<path d="M14.3225 16.6333H16.7096V19.0094H14.3225V16.6333Z" fill="#10FB60"/>
<path d="M14.3225 21.3855H16.7096V23.7616H14.3225V21.3855Z" fill="#10FB60"/>
<path d="M14.3225 26.1378H16.7096V28.514H14.3225V26.1378Z" fill="#10FB60"/>
</svg>
