<?xml version="1.0" encoding="utf-8"?>
<!-- Generator: Adobe Illustrator 25.3.1, SVG Export Plug-In . SVG Version: 6.00 Build 0)  -->
<svg version="1.1" id="Capa_1" xmlns="http://www.w3.org/2000/svg" xmlns:xlink="http://www.w3.org/1999/xlink" x="0px" y="0px"
	 viewBox="0 0 171 60.7" style="enable-background:new 0 0 171 60.7;" xml:space="preserve">
<style type="text/css">
	.st0{clip-path:url(#SVGID_2_);}
	.st1{opacity:0.54;}
	.st2{clip-path:url(#SVGID_4_);}
	.st3{fill:#FFFFFF;}
</style>
<g>
	<g>
		<defs>
			<rect id="SVGID_1_" x="0.5" y="0" width="170" height="64.4"/>
		</defs>
		<use xlink:href="#SVGID_1_"  style="overflow:visible;fill:#FFFFFF;"/>
		<clipPath id="SVGID_2_">
			<use xlink:href="#SVGID_1_"  style="overflow:visible;"/>
		</clipPath>
		<g class="st0">
			<g class="st1">
				<g>
					<defs>
						<polygon id="SVGID_3_" points="1.3,27.4 161.8,27.4 162,60.4 0.5,60.4 						"/>
					</defs>
					<clipPath id="SVGID_4_">
						<use xlink:href="#SVGID_3_"  style="overflow:visible;"/>
					</clipPath>
					<g class="st2">
						<path class="st3" d="M1.5,27.4c19,17.6,35.3,32.9,114.3,16.1c8.4-1.8,16-4,23-6.4c36.9-13.1,55.1-34.5,66.8-51.8l0,0
							c-11.8,17.1-30,38.6-66.9,51.7c-7,2.5-14.6,4.6-23,6.4C36.7,60.2,20.5,44.9,1.5,27.4L1.5,27.4z"/>
						<path class="st3" d="M1.3,27.2l0.1,0.2l0.1,0.1c4.8,4.5,9.3,8.7,14.8,12.3c2.9,2,5.8,3.6,8.9,4.9c3.4,1.5,7,2.7,11,3.7
							c8.7,2.1,18.9,2.8,31.1,2.2c13.5-0.7,29.4-3,48.4-7.1c8.1-1.7,15.8-3.9,23-6.4c4.2-1.5,8.2-3.1,12.1-4.9
							c29.2-13.3,44.6-32.1,54.8-47l0,0l-0.1-0.1l0,0c-10.1,15-25.5,33.8-54.7,47c-3.9,1.7-7.9,3.4-12.1,4.9
							c-7.2,2.5-14.9,4.7-23,6.4c-36.1,7.7-61.3,9.2-79.5,4.9C19.9,44.4,11,36.1,1.6,27.4L1.3,27.2z"/>
						<path class="st3" d="M2.1,28.4C22.7,45.9,36.9,60,116,41.5c7.4-1.7,14.2-3.7,20.4-5.9c37.7-13.3,56.4-34.7,68.4-51.6l0,0
							C192.7,0.9,174,22.2,136.4,35.6c-6.3,2.2-13,4.2-20.4,5.9C36.8,59.9,22.7,45.9,2.1,28.4L2.1,28.4z"/>
						<path class="st3" d="M1.9,28.2L2,28.4c0.5,0.4,0.9,0.8,1.4,1.2c5,4.2,9.7,8.2,15.1,11.6c6.1,3.7,12.3,6.1,19.7,7.5
							c8.5,1.7,18.4,2,30.4,1c13.1-1.1,28.7-3.8,47.4-8.1c7.1-1.7,14-3.7,20.4-5.9c4.4-1.6,8.7-3.3,12.8-5.2
							c29.5-13.4,45.2-31.8,55.6-46.4l0,0l-0.1-0.1l0,0c-10.3,14.5-26,33-55.5,46.3c-4.1,1.9-8.4,3.6-12.8,5.2
							c-6.4,2.3-13.3,4.3-20.4,5.9C80.4,49.7,55.7,52,38.2,48.6c-16-3.1-24.7-10.5-34.7-19.1C3,29.1,2.5,28.7,1.9,28.2L1.9,28.2z"/>
						<path class="st3" d="M2.9,29.9c22.3,17.3,34.8,29.7,113.4,9.6c6.3-1.6,12.1-3.4,17.5-5.3c38.6-13.7,57.9-34.9,70.3-51.5l0,0
							c-12.4,16.6-31.7,37.8-70.3,51.5c-5.5,1.9-11.3,3.7-17.5,5.3C37.6,59.6,25.3,47.2,2.9,29.9L2.9,29.9z"/>
						<path class="st3" d="M2.9,29.8C3.6,30.4,4.3,31,5,31.5c10.4,8.1,19.3,15.1,35,17.4c17,2.6,40.5-0.4,76.3-9.5
							c6.1-1.5,12-3.3,17.5-5.3c4.7-1.7,9.3-3.5,13.7-5.5c29.8-13.5,45.9-31.7,56.6-46l0,0l0.1,0.1l0,0
							c-10.7,14.3-26.8,32.5-56.6,46c-4.4,2-9,3.8-13.7,5.5c-5.6,2-11.5,3.8-17.5,5.3c-18.6,4.7-33.8,7.8-46.5,9.3
							C58,50.2,48.3,50.3,40,49c-7.2-1.1-13.4-3.2-19.4-6.5c-5.5-3-10.4-6.9-15.6-10.9c-0.7-0.5-1.4-1.1-2.1-1.6l0,0V29.8L2.9,29.8z
							 M92.2,45.1c-8.3,1.7-15.7,2.9-22.4,3.7c-5.1,0.6-9.9,1-14.3,1.1C65.6,49.6,77.6,48.1,92.2,45.1"/>
						<path class="st3" d="M3.9,31.7c24.1,17.2,35,27.5,112.7,5.9c5-1.4,9.8-2.9,14.3-4.5c39.8-14.1,59.8-35.3,72.6-51.7l0,0
							c-12.8,16.3-32.8,37.5-72.6,51.7c-4.5,1.6-9.2,3.1-14.3,4.5C38.8,59.1,28,48.8,3.9,31.7L3.9,31.7z"/>
						<path class="st3" d="M3.8,31.6l0.1,0.2l0,0c0.8,0.5,1.5,1.1,2.2,1.6c5.7,4.1,10.7,7.6,16.2,10.4c6.1,3.1,12.2,4.8,19.3,5.6
							c8,0.9,17.5,0.4,29.1-1.3C83,46.2,98,42.8,116.5,37.7c4.9-1.4,9.7-2.9,14.3-4.5c5.1-1.8,10.1-3.8,14.8-5.9
							c7.1-3.2,13.9-6.9,20.2-10.9c5.6-3.6,10.9-7.5,15.9-11.8c10-8.6,17.2-17.3,21.8-23l0,0l-0.1-0.1l0,0
							c-11.1,14.1-27.6,32-57.8,45.7c-4.7,2.1-9.7,4.1-14.8,5.9c-4.6,1.6-9.3,3.1-14.2,4.5c-35.7,9.8-58.8,13.4-75,11.7
							c-15.4-1.7-24.2-8-35.4-16C5.5,32.7,4.7,32.2,3.8,31.6L3.8,31.6z"/>
						<path class="st3" d="M5.1,33.7c25.8,17,35.3,24.9,111.7,1.9c3.6-1.1,7.1-2.2,10.4-3.4c41.4-14.7,62.2-36,75.4-52.1l0,0
							c-13.3,16.1-34.1,37.4-75.4,52.1c-3.3,1.2-6.8,2.3-10.4,3.4C40.3,58.6,30.9,50.7,5.1,33.7L5.1,33.7z"/>
						<path class="st3" d="M5,33.6l0.1,0.2l0,0c0.6,0.4,1.2,0.8,1.8,1.2c12.2,8,21,13.8,36.1,14.8c3.9,0.3,8,0.2,12.6-0.2
							c4.8-0.4,10-1.1,15.9-2.3c11.9-2.2,26.7-6.1,45.2-11.7c3.5-1.1,7-2.2,10.4-3.4c5.6-2,11-4.2,16.1-6.5
							c7.3-3.3,14.3-7,20.7-11.1c5.7-3.6,11.2-7.6,16.3-11.8c4.4-3.7,8.5-7.5,12.6-11.7c3.2-3.4,6.3-6.8,9.8-11l0,0l-0.1-0.1l0,0
							c-11.3,14-28.4,31.7-59.2,45.7c-5.1,2.3-10.5,4.5-16.1,6.5c-3.4,1.2-6.9,2.3-10.4,3.4C80.6,46.5,58.5,50.7,43,49.7
							c-15.1-1-23.9-6.8-36.2-14.9C6.3,34.5,5.7,34.1,5,33.6L5,33.6z"/>
						<path class="st3" d="M6.3,35.9c27.6,16.8,35.8,22.3,110.8-2.2c2-0.7,4-1.3,5.9-2c43.3-15.4,65.1-36.9,79-52.8l0,0
							c-13.8,15.9-35.6,37.5-79,52.8c-1.9,0.7-3.9,1.3-5.9,2C42.1,58.1,33.9,52.7,6.3,35.9L6.3,35.9z"/>
						<path class="st3" d="M6.9,36.2c13.6,8.3,22.5,13.7,37.4,14c14.8,0.3,35.2-4.3,72.8-16.6c2-0.6,3.9-1.3,5.9-2
							c6.2-2.2,12.1-4.6,17.8-7.1C172.3,10.2,190-7.4,202-21.2l0,0l0.1,0.1l0,0C196.8-15,189.4-6.9,179,1.4
							c-5.3,4.2-10.9,8.2-16.8,11.8c-6.6,4.1-13.8,7.9-21.3,11.3c-5.6,2.6-11.6,5-17.8,7.1c-2,0.7-3.9,1.4-5.9,2
							c-19.1,6.2-33.4,10.4-44.8,13c-11.6,2.6-20.5,3.8-28,3.6C29.4,50,20.4,44.5,6.9,36.2l-0.6-0.3l-0.1-0.1L6.9,36.2z M76.7,45.6
							c-1.5,0.4-3,0.7-4.5,1.1c-3,0.7-5.7,1.3-8.4,1.7C67.8,47.7,72.1,46.7,76.7,45.6"/>
						<path class="st3" d="M7.6,38.2C37,54.8,44.1,57.6,117.4,31.7l0.3-0.1c46-16.3,69-38.2,83.5-54.1l0,0
							c-14.5,15.8-37.5,37.8-83.5,54.1c-0.1,0-0.2,0.1-0.3,0.1C44,57.6,37,54.8,7.6,38.2L7.6,38.2z"/>
						<path class="st3" d="M7.5,38.1L7.5,38.1L7.5,38.1c7.6,4.4,13.4,7.6,19.3,9.8C33.1,50.2,39,51.2,46,51c7.3-0.2,16-1.8,27.4-4.9
							c10.7-2.9,24.3-7.3,43.9-14.3l0.3-0.1c6.9-2.4,13.6-5.1,19.9-8c7.8-3.5,15.3-7.5,22.2-11.7c6.1-3.7,12-7.7,17.5-12
							c10.7-8.3,18.4-16.3,24-22.4l0,0l-0.1-0.1l0,0C188.6-8.8,170,8.8,137.5,23.6c-6.3,2.9-13,5.5-19.9,8c-0.1,0-0.2,0.1-0.3,0.1
							C78.4,45.4,59.8,50.4,46,50.8C31.6,51.3,22.5,46.5,7.5,38.1L7.5,38.1z"/>
						<path class="st3" d="M9,40.5c26,13.8,34.5,16,78.2,0.5c8.6-3.1,18.6-6.8,30.4-11.3c45.1-17.2,68.2-38.5,82.8-53.5l0,0
							c-14.6,15.1-37.7,36.4-82.8,53.5C105.8,34.2,95.8,38,87.2,41C43.4,56.5,35,54.3,9,40.5L9,40.5z"/>
						<path class="st3" d="M9,40.5C34.2,53.9,42.7,56.8,87.2,41c7.6-2.7,16.7-6.1,30.4-11.3c5.5-2.1,10.9-4.3,16-6.7
							c33.5-15.2,52.6-32.2,66.8-46.9l0,0v0.1l0,0c-5.9,6.1-14.1,14.1-25.2,22.5C169.4,3,163.3,7.2,156.9,11
							c-7.3,4.3-15.1,8.4-23.3,12.1c-5.1,2.3-10.5,4.6-16,6.7C104,35,94.9,38.4,87.2,41.1c-11.5,4.1-20.1,6.7-27,8.4
							c-7.4,1.8-13.3,2.5-18.8,2.3c-5.1-0.2-10-1.2-15.4-3.2C21,46.8,15.8,44.2,9,40.5L9,40.5L9,40.5L9,40.5z M34.4,51
							c-2.7-0.5-5.5-1.3-8.4-2.4c-2.8-1.1-5.7-2.3-8.9-3.9C23.3,47.8,28.7,49.9,34.4,51 M152.8,13.4c8.5-4.8,15.8-9.6,22.2-14.5
							c-5.7,4.3-11.7,8.3-18,12.1C155.6,11.8,154.2,12.6,152.8,13.4"/>
						<path class="st3" d="M10.4,43c23.2,11.5,32.5,13.5,60.4,3.6c11.7-4.1,26.6-10.3,47.1-18.8c44-18,67.1-38.6,81.8-52.9l0,0
							C185-10.8,161.9,9.8,117.9,27.8c-20.5,8.4-35.5,14.6-47.1,18.8C42.9,56.4,33.5,54.5,10.4,43L10.4,43z"/>
						<path class="st3" d="M10.3,42.9l0.1,0.1l0,0c6.6,3.3,11.2,5.3,15.3,6.8c4.8,1.7,8.9,2.7,13.1,3c4.4,0.3,8.8,0,14-1
							c5-1,10.7-2.7,17.9-5.2c10.4-3.7,23-8.9,40.5-16c2.1-0.9,4.3-1.8,6.6-2.7c3.6-1.5,7.2-3,10.7-4.6c8.8-4,17.1-8.3,24.9-12.8
							c6.8-4,13.4-8.3,19.6-12.8c11.5-8.4,20-16.2,26.7-22.8l0,0v-0.1l0,0c-15.3,14.9-35.8,32.3-71.1,48.3
							c-3.5,1.6-7.1,3.1-10.7,4.6c-2.3,0.9-4.5,1.8-6.6,2.7c-17.5,7.2-30.1,12.4-40.5,16C43.3,56.2,33.7,54.6,10.3,42.9L10.3,42.9z"
							/>
						<path class="st3" d="M11.8,45.5c21,9.9,30.8,11.5,50.5,4.6c12.6-4.5,29.4-12.5,55.9-24.2C161,7,184.1-12.9,198.9-26.5l0,0
							C184.1-13,161,6.9,118.1,25.8C91.7,37.5,74.9,45.5,62.3,50C42.6,57,32.8,55.3,11.8,45.5L11.8,45.5z"/>
						<path class="st3" d="M11.8,45.4c20.8,9.8,30.5,11.7,50.5,4.6c8.8-3.1,19.6-8,34.5-14.7c6.3-2.8,13.4-6,21.4-9.5
							c1.2-0.5,2.4-1.1,3.6-1.6c37.8-17.1,59.4-34.5,77.2-50.7l0,0v0.1l0,0c-7.8,7.1-16.7,14.9-28.8,23.4
							c-6.7,4.7-13.8,9.2-21.3,13.5c-8.5,4.9-17.6,9.5-27.2,13.8c-1.2,0.5-2.4,1.1-3.6,1.6c-8,3.5-15.1,6.7-21.4,9.5
							C81.8,42.1,71.1,46.9,62.2,50c-5.1,1.8-9.3,3-13.2,3.6c-4,0.7-7.8,0.8-11.5,0.4C29.6,53.3,21.5,50.1,11.8,45.4L11.8,45.4
							L11.8,45.4L11.8,45.4z M46.7,54c-3.1,0.4-6.1,0.4-9.1,0.1c-4.9-0.5-9.8-1.9-15.2-4C31.4,53.6,38.5,55,46.7,54 M133.4,18.7
							C148.6,11.1,161,3.5,171.5-4c-0.4,0.3-0.9,0.6-1.3,0.9c-6.7,4.7-13.8,9.2-21.3,13.5C143.9,13.2,138.8,16,133.4,18.7"/>
						<path class="st3" d="M13.2,48c19.5,8.7,29.5,10,44.6,4.7C70.9,48,88,38.3,118.4,23.9c41.8-19.8,64.8-39,79.7-51.7l0,0
							c-14.9,12.8-38,32-79.7,51.7C87.9,38.3,70.9,48,57.8,52.6C42.7,58,32.7,56.6,13.2,48L13.2,48z"/>
						<path class="st3" d="M13.2,47.9c19.9,8.8,29.9,9.9,44.6,4.7c2.9-1,6.2-2.4,10.1-4.2c5.8-2.6,12.5-6,20.3-9.9
							c8.5-4.3,18.2-9.1,30.2-14.7c43.2-20.4,66.9-40.8,79.7-51.7l0,0v0.1l0,0c-7.8,6.7-17.2,14.5-29.8,23.2
							c-6.9,4.8-14.3,9.5-22,13.9c-8.8,5.1-18.2,10-28,14.6c-11.9,5.6-21.6,10.5-30.2,14.7c-7.8,3.9-14.6,7.3-20.3,9.9
							c-3.9,1.8-7.2,3.1-10.1,4.2c-3.9,1.4-7.4,2.3-10.6,2.8C43.7,56,40.4,56,37,55.7C30.8,54.9,23.6,52.6,13.2,47.9L13.2,47.9
							L13.2,47.9L13.2,47.9z M187.3-18.8c0.9-0.7,1.7-1.4,2.5-2C189-20.2,188.2-19.5,187.3-18.8"/>
						<path class="st3" d="M14.7,50.6C32.9,58.3,43,59.4,55.5,55c13.6-4.8,30.1-16.3,63.2-33.1c40.6-20.6,63.7-39.2,78.7-51.2l0,0
							c-15,12-38,30.5-78.7,51.2C85.6,38.7,69.1,50.2,55.5,55C43,59.4,32.9,58.2,14.7,50.6L14.7,50.6z"/>
						<path class="st3" d="M14.7,50.5c18.4,7.8,28.4,8.9,40.8,4.5c1.9-0.7,3.8-1.5,6-2.4c6.2-2.8,13.2-6.7,22-11.7
							c9.2-5.1,20.6-11.6,35.2-18.9c40.3-20.6,63.1-38.9,78.2-51l0.4-0.3v0.1l-0.4,0.3C181.9-16.8,159,1.5,118.7,22
							c-14.6,7.4-26,13.8-35.2,19c-8.9,5-15.9,8.9-22,11.7c-2.2,1-4.1,1.8-6,2.4c-6.5,2.3-12.1,3-18.3,2.3
							C31.1,56.7,24.2,54.6,14.7,50.5L14.7,50.5L14.7,50.5L14.7,50.5z M49,56.8c-3.9,0.8-7.7,0.9-11.8,0.5c-2.1-0.2-4.3-0.6-6.6-1.2
							C37.5,57.8,43.2,58,49,56.8"/>
						<path class="st3" d="M16.2,53.2c17.3,6.9,27.4,7.9,38.2,4.1c14.2-5,29.8-18.3,64.6-37.2c39.5-21.5,62.5-39.4,77.6-50.6l0,0
							C181.4-19.4,158.5-1.6,118.9,20C84.2,38.9,68.6,52.2,54.4,57.2C43.5,61,33.4,60.1,16.2,53.2L16.2,53.2z"/>
						<path class="st3" d="M196.6-30.6L196.6-30.6c-1.1,0.8-2.3,1.7-3.5,2.6c-15,11.2-37.5,28.1-74.1,48
							c-16.2,8.8-28.3,16.4-38,22.5c-8.9,5.6-16,10.1-22.3,13c-1.5,0.7-2.9,1.3-4.3,1.7c-2.8,1-5.5,1.6-8.1,2
							c-2.8,0.3-5.6,0.4-8.6,0c-5.9-0.6-12.7-2.5-21.5-6.1l0,0L16.1,53h0.1c17.2,6.9,27.2,8,38.2,4.1c1.4-0.5,2.8-1.1,4.3-1.7
							c6.4-2.9,13.4-7.3,22.3-13c9.7-6.1,21.7-13.7,37.9-22.5c36.5-19.9,59.1-36.8,74-48C194.2-29,195.4-29.9,196.6-30.6L196.6-30.6
							L196.6-30.6z M46.3,59.2L46.3,59.2c-2.8,0.4-5.7,0.4-8.7,0.1c-3.4-0.4-7.2-1.2-11.5-2.5C34.1,59.2,40.3,59.9,46.3,59.2"/>
					</g>
				</g>
			</g>
			<g>
				<g>
					<path class="st3" d="M6,0.8v15.9c0,0.2,0,0.3,0,0.4c0.1,1.3,0.4,2.4,1,3.5s1.4,2,2.4,2.7C9,23.4,8.5,23.4,8,23.4
						c-0.9,0-1.8-0.2-2.6-0.5c-0.8-0.4-1.6-0.8-2.2-1.5c-0.6-0.6-1.1-1.3-1.5-2.2c-0.4-0.8-0.5-1.7-0.5-2.6V0.8H6z M7,18.3
						c0.3,0.2,0.7,0.3,1.1,0.3c0.6,0,1.1-0.2,1.5-0.6s0.6-0.9,0.6-1.5V0.8h4.7v15.7c0,0.2,0,0.4,0.1,0.6c0.1,1.2,0.4,2.4,1,3.5
						c0.6,1.1,1.4,1.9,2.4,2.6c-0.2,0-0.5,0.1-0.7,0.1s-0.5,0-0.7,0c-0.9,0-1.7-0.2-2.4-0.5c-0.8-0.3-1.4-0.7-2.1-1.2
						c-0.6,0.5-1.3,0.9-2.1,1.2c-0.8-0.5-1.6-1.1-2.2-2C7.7,20.2,7.3,19.3,7,18.3z M17,18.7c0.6,0,1-0.2,1.5-0.6
						c0.4-0.4,0.6-0.9,0.6-1.5V0.8h4.7v15.7c0,1.5-0.4,2.8-1.2,3.9c-0.8,1.1-1.9,2-3.2,2.5c-0.8-0.5-1.5-1.1-2.1-1.9s-1-1.6-1.3-2.6
						C16.3,18.6,16.6,18.7,17,18.7z"/>
					<path class="st3" d="M27,8.2c1.4-0.7,2.5-1.7,3.4-3s1.3-2.8,1.3-4.5v15.1c-1.4,0.7-2.5,1.7-3.4,3S27,21.6,27,23.3V8.2z
						 M30.9,0.8c0,1.4-0.4,2.7-1.1,3.9s-1.7,2.1-2.9,2.7V0.8H30.9z M31.7,16.8v6.6h-3.9c0-1.4,0.4-2.7,1.1-3.9
						C29.6,18.3,30.5,17.4,31.7,16.8z"/>
					<path class="st3" d="M34.8,8.8c0-1.1,0.2-2.1,0.6-3.1c0.4-1,1-1.8,1.7-2.6c0.7-0.7,1.6-1.3,2.6-1.7s2-0.6,3.1-0.6
						c0.7,0,1.4,0.1,2.1,0.3c-0.8,0.3-1.5,0.7-2.1,1.2c-0.7,0.5-1.2,1.1-1.7,1.8S40.2,5.5,40,6.3c-0.3,0.8-0.4,1.6-0.4,2.5v14.7
						h-4.7L34.8,8.8L34.8,8.8z M40.8,6.2c0.4-1.2,1.1-2.2,2.1-3c0.9-0.8,2-1.4,3.3-1.7c0.7,0.3,1.3,0.7,1.9,1.2
						c0.6,0.5,1.1,1,1.5,1.7c0.4,0.6,0.7,1.3,1,2.1c0.2,0.7,0.3,1.5,0.3,2.3v14.6h-4.7V8.8c0-0.5-0.1-0.9-0.3-1.3s-0.4-0.7-0.7-1
						s-0.7-0.5-1-0.7c-0.4-0.2-0.8-0.3-1.3-0.3C42.1,5.5,41.4,5.7,40.8,6.2z"/>
					<path class="st3" d="M54,5.1V0.8h9.1c1.6,0,3,0.3,4.4,0.9s2.6,1.4,3.6,2.4s1.8,2.2,2.4,3.6s0.9,2.8,0.9,4.4c0,0.4,0,0.7,0,1.1
						c0,0.4-0.1,0.7-0.2,1.1c0,0.1,0,0.1,0,0.2c-0.1-0.8-0.4-1.6-0.7-2.4c-0.3-0.8-0.7-1.5-1.2-2.1l-0.1-0.1
						c-0.9-1.3-2.1-2.4-3.5-3.2c-1.4-0.9-2.9-1.3-4.6-1.4H64c-0.2,0-0.3,0-0.5,0s-0.3,0-0.5,0h-9V5.1z M54,5.9h4.7v12.8h4.4
						c0.9,0,1.7-0.2,2.5-0.5s1.5-0.8,2.1-1.4s1.1-1.3,1.4-2.1s0.5-1.6,0.5-2.6c0-1.2-0.3-2.2-0.8-3.2s-1.3-1.7-2.2-2.3
						c1,0.4,1.9,0.9,2.7,1.5c0.8,0.6,1.6,1.4,2.2,2.2s1.1,1.8,1.5,2.8s0.6,2.1,0.6,3.2c-0.4,1-1,2-1.7,2.9s-1.5,1.6-2.4,2.3
						c-0.9,0.6-1.9,1.1-3,1.5s-2.2,0.5-3.4,0.5H54V5.9z"/>
					<path class="st3" d="M93.6,9L93.6,9v0.3v0.2v0.1l0,0c0,0,0,0,0,0.1l0,0c0,0.1,0,0.2,0,0.2V10l0,0v0.1v0.1c0,0.1,0,0.1,0,0.2
						v0.1l0,0l0,0v0.1c0,0.1-0.1,0.2-0.1,0.3V11c-0.2,0.8-0.6,1.6-1.1,2.3s-1.1,1.3-1.8,1.9l0,0l-1.9,1.6l-2.1,1.8h7.2v4.7H80
						c-0.5,0-0.9-0.1-1.4-0.4c-0.4-0.3-0.7-0.7-0.9-1.1c0-0.1-0.1-0.2-0.1-0.3c0-0.1,0-0.2-0.1-0.3c0-0.8,0.2-1.5,0.8-2L82,16l0,0
						l5.4-4.6c0.1-0.1,0.2-0.2,0.3-0.3c0.3-0.3,0.5-0.6,0.7-1c0.2-0.3,0.3-0.7,0.3-1.2l0,0c0,0,0,0,0-0.1V8.7V8.6V8.4l0,0V8.3V8.2
						V8.1v0l0,0l0,0V8c0,0,0,0,0-0.1c0,0,0,0,0-0.1V7.7c0-0.1,0-0.1-0.1-0.2V7.4V7.3l0,0c0,0,0-0.1-0.1-0.1c0,0,0-0.1-0.1-0.2l0,0
						l0,0c0,0,0,0,0-0.1l0,0l0,0c0,0,0,0,0-0.1c0,0,0,0,0-0.1l0,0l0,0l-0.1-0.1V6.5c0,0,0,0-0.1,0l-0.1-0.1H88
						c-0.1-0.1-0.2-0.1-0.2-0.2C87.5,6,87.4,6,87.3,6l-0.1-0.1c0,0,0,0-0.1,0l0,0l0,0c-0.1,0-0.1,0-0.2-0.1c-0.1,0-0.1,0-0.2-0.1
						h-0.1c0,0,0,0-0.1,0l0,0c0,0,0,0-0.1,0h-0.1h-0.1h-0.1H86h-0.1h-0.1c0,0-0.1,0-0.2,0c-0.4,0-0.8,0.1-1.1,0.2
						c-0.4,0.2-0.7,0.3-1,0.6c0.4-1.2,1.1-2.3,2-3.1c1-0.9,2.1-1.4,3.4-1.7c1.4,0.6,2.5,1.6,3.4,2.8c0.9,1.3,1.3,2.7,1.4,4.3V9H93.6
						z M77.6,9.6c0,0,0-0.1,0-0.2c0-0.1,0-0.1,0-0.2V9.1V8.7c0-1.1,0.2-2.1,0.7-3c0.4-0.9,1-1.8,1.7-2.5s1.6-1.3,2.5-1.7
						c1-0.4,2-0.6,3.1-0.6c0.7,0,1.4,0.1,2,0.2c-0.8,0.3-1.5,0.7-2.1,1.1c-0.6,0.5-1.2,1-1.7,1.7C83.3,4.5,83,5.3,82.7,6
						s-0.4,1.6-0.4,2.5l0,0c0,0.1,0,0.2,0,0.3c0,0.4,0.1,0.7,0.2,1.1c0.1,0.3,0.3,0.7,0.5,0.9L79.4,14c-0.5-0.5-0.9-1.2-1.2-1.9
						c0,0,0-0.1-0.1-0.2c0,0,0,0,0-0.1v-0.1c0,0,0,0,0-0.1v-0.1c0,0-0.1-0.1-0.1-0.2c0-0.1,0-0.1,0-0.2c0-0.1,0-0.1-0.1-0.2
						c0-0.2-0.1-0.3-0.1-0.5s-0.1-0.3-0.1-0.5c0,0,0,0,0-0.1c0,0,0,0,0-0.1v0.2V9.8V9.6H77.6z M78.2,12.1c-0.4-0.9-0.6-1.8-0.6-2.8
						C77.7,10.3,77.9,11.2,78.2,12.1z M88.9,8.5V8.4V8.3l0,0V8.2c-0.1-0.4-0.2-0.7-0.4-1c-0.2-0.3-0.5-0.6-0.8-0.8
						c-0.3-0.2-0.6-0.4-1-0.5s-0.7-0.2-1-0.2c-0.8,0-1.5,0.3-2.1,0.8l0,0C84,6.2,84.3,6,84.7,5.9s0.8-0.2,1.2-0.2H86l0,0l0,0h0.1
						h0.1l0,0c0,0,0.1,0,0.3,0.1h0.1l0,0c0,0,0.1,0.1,0.2,0.1s0.1,0,0.2,0.1c0-0.1,0-0.1,0.1,0c0,0,0,0,0.1,0c0,0,0,0,0.1,0h0.1
						c0.1,0,0.2,0.1,0.3,0.2c0.1,0.1,0.1,0.1,0.2,0.2L88,6.5c0,0,0.1,0,0.1,0.1l0,0l0,0l0,0l0,0c0.1,0,0.1,0.1,0.1,0.1s0,0,0,0.1
						L88.3,7v0.1l0,0c0,0,0,0,0.1,0.1l0,0l0.1,0.1v0.1l0,0v0.1c0,0,0,0,0,0.1v0.1l0.1,0.1v0.1l0,0l0,0V8c0,0,0,0,0,0.1v0.1
						c0,0,0,0.1,0.1,0.2v0.1H88.9z M93.5,10.5c0,0.1,0,0.1,0,0.1C93.4,10.6,93.5,10.5,93.5,10.5s0-0.1,0-0.2
						C93.5,10.4,93.5,10.5,93.5,10.5z"/>
					<g>
						<g>
							<path class="st3" d="M119.4,12.1c0,1.5-0.3,3-0.9,4.4s-1.4,2.6-2.4,3.6s-2.2,1.8-3.6,2.4s-2.9,0.9-4.4,0.9
								c-1.6,0-3-0.3-4.4-0.9s-2.6-1.4-3.6-2.4s-1.8-2.2-2.4-3.6s-0.9-2.8-0.9-4.4s0.3-3,0.9-4.4s1.4-2.6,2.4-3.6s2.2-1.8,3.6-2.4
								s2.8-0.9,4.4-0.9c0.7,0,1.4,0.1,2.1,0.2c0.1,0,0.1,0,0.2,0s0.1,0,0.2,0c-1.2,0.3-2.4,0.7-3.5,1.3s-2,1.4-2.8,2.4
								s-1.4,2-1.9,3.2s-0.7,2.4-0.8,3.7c0,0.1,0,0.2,0,0.3c0,0.9,0.2,1.8,0.5,2.6c0.3,0.8,0.8,1.5,1.4,2.1c0.6,0.6,1.3,1.1,2.1,1.5
								c0.8,0.4,1.7,0.5,2.6,0.5c1,0,2-0.2,2.9-0.7c0.9-0.4,1.6-1,2.2-1.8h-5.1v-4.7h11.3c0,0.1,0,0.2,0,0.3
								C119.4,11.9,119.4,12,119.4,12.1z M112.8,7.5C112.7,7.5,112.7,7.5,112.8,7.5C112.7,7.4,112.7,7.4,112.8,7.5
								c-0.7-0.6-1.4-1.1-2.1-1.4c-0.8-0.3-1.6-0.5-2.5-0.5c-1,0-1.9,0.2-2.7,0.6c-0.8,0.4-1.5,0.9-2.1,1.5c0.4-0.8,0.9-1.6,1.5-2.3
								s1.3-1.3,2-1.9c0.7-0.5,1.6-1,2.4-1.3c0.9-0.3,1.8-0.5,2.8-0.6c0.8,0.3,1.5,0.6,2.2,1.1c0.7,0.4,1.3,0.9,1.9,1.5l0.1,0.1
								L112.8,7.5z"/>
						</g>
					</g>
					<g>
						<g>
							<path class="st3" d="M133.8,1.4c1.4,0.5,2.6,1.3,3.4,2.5c0.8,1.2,1.3,2.5,1.3,4.1v0.3l0,0l0,0v0.1v0.1v0.1c0,0,0,0.1,0,0.2
								c0,0.1,0,0.1,0,0.1V9c0,0,0,0.1,0,0.2v0.1v0.1c-0.8-1.1-1.7-2-2.9-2.7s-2.5-1-4-1h-8.9V1h4.7l0,0h4.5
								C132.4,1.1,133.1,1.2,133.8,1.4L133.8,1.4z M127.2,23.6h-4.7V6.5h4.7V10h4.5c0.6,0,1-0.2,1.5-0.6c0.4-0.4,0.6-0.9,0.6-1.5
								V7.7V7.6l0,0V7.5V7.4V7.3V7.2l0,0L133.7,7l-0.1-0.1l0,0c0,0,0,0,0-0.1c1,0.3,1.8,0.8,2.6,1.4s1.4,1.4,1.9,2.2c0,0,0,0,0,0.1
								c0,0,0,0,0,0.1l0,0c0,0,0,0,0,0.1l-0.1,0.1v0.1c0,0,0,0.1-0.1,0.1c0,0,0,0.1-0.1,0.1c0,0,0,0.1-0.1,0.1c0,0,0,0.1-0.1,0.1
								l0,0l-0.1,0.1l0,0c0,0,0,0,0,0.1c0,0,0,0.1-0.1,0.1l-0.1,0.1l0,0l0,0c0,0-0.1,0.1-0.1,0.2h-0.1c0,0.1-0.1,0.1-0.1,0.2
								c0.5,0.6,0.9,1.3,1.2,2.1s0.4,1.6,0.4,2.4v1.5c-0.7-1.1-1.7-2-2.9-2.6c-1.2-0.6-2.5-1-3.9-1h-4.6L127.2,23.6L127.2,23.6z
								 M133.6,15.6c1.1,0.3,2.1,0.8,3,1.5s1.5,1.6,2,2.6v3.8h-4.7V17c0-0.1,0-0.2,0-0.4c0-0.2,0-0.3,0-0.4v-0.1l-0.1-0.2v-0.1v-0.1
								L133.6,15.6L133.6,15.6C133.6,15.7,133.6,15.7,133.6,15.6C133.6,15.7,133.6,15.7,133.6,15.6L133.6,15.6z"/>
						</g>
					</g>
					<g>
						<g>
							<path class="st3" d="M141.7,8.2c1.4-0.7,2.5-1.7,3.4-3s1.3-2.8,1.3-4.5v15.1c-1.4,0.7-2.5,1.7-3.4,3s-1.3,2.8-1.3,4.5V8.2z
								 M145.6,0.8c0,1.4-0.4,2.7-1.1,3.9c-0.7,1.2-1.7,2.1-2.9,2.7V0.8H145.6z M146.4,16.8v6.6h-3.9c0-1.4,0.4-2.7,1.1-3.9
								C144.3,18.3,145.3,17.4,146.4,16.8z"/>
						</g>
					</g>
					<g>
						<g>
							<path class="st3" d="M149.6,5.1V0.8h9.1c1.6,0,3,0.3,4.4,0.9s2.6,1.4,3.6,2.4s1.8,2.2,2.4,3.6c0.6,1.4,0.9,2.8,0.9,4.4
								c0,0.4,0,0.7,0,1.1c0,0.4-0.1,0.7-0.2,1.1c0,0.1,0,0.1,0,0.2c-0.1-0.8-0.4-1.6-0.7-2.4s-0.7-1.5-1.2-2.1l-0.1-0.1
								c-0.9-1.3-2.1-2.4-3.5-3.2c-1.4-0.9-2.9-1.3-4.6-1.4h-0.1c-0.2,0-0.3,0-0.5,0s-0.3,0-0.5,0h-9V5.1z M149.6,5.9h4.7v12.8h4.4
								c0.9,0,1.7-0.2,2.5-0.5s1.5-0.8,2.1-1.4s1.1-1.3,1.4-2.1c0.3-0.8,0.5-1.6,0.5-2.6c0-1.2-0.3-2.2-0.8-3.2s-1.3-1.7-2.2-2.3
								c1,0.4,1.9,0.9,2.7,1.5s1.6,1.4,2.2,2.2c0.6,0.8,1.1,1.8,1.5,2.8s0.6,2.1,0.6,3.2c-0.4,1-1,2-1.7,2.9s-1.5,1.6-2.4,2.3
								c-0.9,0.6-1.9,1.1-3,1.5s-2.2,0.5-3.4,0.5h-9.1V5.9z"/>
						</g>
					</g>
				</g>
			</g>
		</g>
	</g>
</g>
</svg>
