<?xml version="1.0" encoding="utf-8"?>
<!-- Generator: Adobe Illustrator 16.0.0, SVG Export Plug-In . SVG Version: 6.00 Build 0)  -->
<!DOCTYPE svg PUBLIC "-//W3C//DTD SVG 1.1//EN" "http://www.w3.org/Graphics/SVG/1.1/DTD/svg11.dtd" [
	<!ENTITY ns_extend "http://ns.adobe.com/Extensibility/1.0/">
	<!ENTITY ns_ai "http://ns.adobe.com/AdobeIllustrator/10.0/">
	<!ENTITY ns_graphs "http://ns.adobe.com/Graphs/1.0/">
	<!ENTITY ns_vars "http://ns.adobe.com/Variables/1.0/">
	<!ENTITY ns_imrep "http://ns.adobe.com/ImageReplacement/1.0/">
	<!ENTITY ns_sfw "http://ns.adobe.com/SaveForWeb/1.0/">
	<!ENTITY ns_custom "http://ns.adobe.com/GenericCustomNamespace/1.0/">
	<!ENTITY ns_adobe_xpath "http://ns.adobe.com/XPath/1.0/">
]>
<svg version="1.1" id="Layer_1" xmlns:x="&ns_extend;" xmlns:i="&ns_ai;" xmlns:graph="&ns_graphs;"
	 xmlns="http://www.w3.org/2000/svg" xmlns:xlink="http://www.w3.org/1999/xlink" x="0px" y="0px" width="205px" height="73px"
	 viewBox="0 0 205 73" enable-background="new 0 0 205 73" xml:space="preserve">
<metadata>
	<sfw  xmlns="&ns_sfw;">
		<slices></slices>
		<sliceSourceBounds  width="154" height="58.312" y="-59.312" x="25.5" bottomLeftOrigin="true"></sliceSourceBounds>
	</sfw>
</metadata>
<g>
	<path fill="#3C3C3B" d="M70.351,20.794h-6.376v-3.795h16.699v3.795h-6.376v17.458h-3.947V20.794z"/>
	<path fill="#3C3C3B" d="M95.095,33.698c-0.333,1.215-2.247,4.858-7.135,4.858c-4.554,0-7.894-3.34-7.894-8.046
		s3.34-8.045,7.894-8.045c4.251,0,7.591,3.339,7.591,7.742c0,0.456-0.061,0.82-0.091,1.092l-0.061,0.425H83.861
		c0.334,2.157,1.943,3.644,4.098,3.644c1.792,0,2.885-1.032,3.188-1.67H95.095L95.095,33.698z M91.755,29.144
		c-0.334-1.974-1.64-3.491-3.795-3.491c-2.307,0-3.644,1.518-4.098,3.491H91.755z"/>
	<path fill="#3C3C3B" d="M98.283,16.999h3.795v12.752l5.769-6.983h4.402l-6.376,7.59l6.679,7.894h-4.401l-6.072-7.287v7.287h-3.795
		V16.999z"/>
	<path fill="#3C3C3B" d="M113.464,22.768h3.491l0.304,1.518h0.151c0.273-0.334,0.638-0.638,1.032-0.911
		c0.698-0.456,1.761-0.911,3.218-0.911c3.493,0,6.073,2.581,6.073,6.528v9.26h-3.795v-8.957c0-1.973-1.367-3.339-3.341-3.339
		c-1.973,0-3.339,1.366-3.339,3.339v8.957h-3.795V22.768z"/>
	<path fill="#3C3C3B" d="M130.769,16.695h4.101v3.644h-4.101V16.695z M130.921,22.768h3.795v15.484h-3.795V22.768z"/>
	<path fill="#3C3C3B" d="M138.208,16.999h3.795v12.752l5.768-6.983h4.403l-6.377,7.59l6.681,7.894h-4.403l-6.071-7.287v7.287h-3.795
		V16.999z"/>
	<path fill="#3C3C3B" d="M167.051,33.698c-0.333,1.215-2.247,4.858-7.135,4.858c-4.554,0-7.895-3.34-7.895-8.046
		s3.341-8.045,7.895-8.045c4.251,0,7.591,3.339,7.591,7.742c0,0.456-0.061,0.82-0.091,1.092l-0.062,0.425h-11.536
		c0.333,2.157,1.942,3.644,4.098,3.644c1.791,0,2.884-1.032,3.188-1.67H167.051L167.051,33.698z M163.711,29.144
		c-0.334-1.974-1.64-3.491-3.795-3.491c-2.308,0-3.644,1.518-4.1,3.491H163.711z"/>
	<path fill="#3C3C3B" d="M170.088,22.768h3.187l0.305,1.366h0.15c0.184-0.243,0.396-0.455,0.669-0.668
		c0.455-0.333,1.124-0.698,2.064-0.698h3.037v3.644h-2.732c-1.914,0-2.886,0.972-2.886,2.884v8.957h-3.794V22.768L170.088,22.768z"
		/>
	<path fill="#3850A1" d="M25.5,9v8h14.701v21.179h9.122V16.999V9h-9.122H25.5z"/>
	<path fill="#3850A1" d="M64.025,1H49.324v8h14.701V1z"/>
	<path fill="#3C3C3B" d="M63.922,45.305h0.933l1.517,2.541l1.517-2.541h0.933v5.373h-0.876v-3.853l-1.574,2.532h-0.028l-1.56-2.517
		v3.837h-0.862V45.305z"/>
	<path fill="#3C3C3B" d="M69.892,45.305h3.696v0.845h-2.82v1.397h2.5v0.844h-2.5v1.442h2.856v0.845h-3.732V45.305z"/>
	<path fill="#3C3C3B" d="M74.451,45.305h0.933l1.517,2.541l1.517-2.541h0.933v5.373h-0.876v-3.853l-1.574,2.532h-0.028l-1.56-2.517
		v3.837h-0.862V45.305z"/>
	<path fill="#3C3C3B" d="M80.421,45.305h2.236c0.57,0,1.019,0.171,1.304,0.477c0.221,0.237,0.335,0.53,0.335,0.891v0.016
		c0,0.644-0.342,0.989-0.712,1.196c0.584,0.215,0.99,0.576,0.99,1.306v0.014c0,0.96-0.733,1.475-1.844,1.475h-2.308V45.305z
		 M83.42,46.825c0-0.423-0.313-0.684-0.876-0.684h-1.261v1.428h1.196c0.563,0,0.941-0.238,0.941-0.729V46.825z M82.671,48.367
		h-1.389v1.474h1.454c0.598,0,0.96-0.253,0.96-0.736v-0.016C83.697,48.637,83.363,48.367,82.671,48.367z"/>
	<path fill="#3C3C3B" d="M85.351,45.305h3.696v0.845h-2.82v1.397h2.5v0.844h-2.5v1.442h2.856v0.845h-3.732V45.305z"/>
	<path fill="#3C3C3B" d="M89.91,45.306h2.222c0.627,0,1.118,0.2,1.439,0.537c0.263,0.292,0.413,0.691,0.413,1.159v0.015
		c0,0.884-0.491,1.412-1.183,1.627l1.346,2.034h-1.04l-1.225-1.872h-1.097v1.872H89.91V45.306z M92.068,47.969
		c0.626,0,1.025-0.354,1.025-0.898v-0.015c0-0.576-0.385-0.891-1.033-0.891h-1.275v1.804H92.068z"/>
	<path fill="#3C3C3B" d="M96.549,48.007v-0.016c0-1.512,1.083-2.778,2.614-2.778c1.532,0,2.6,1.252,2.6,2.764v0.015
		c0,1.512-1.083,2.778-2.614,2.778C97.618,50.77,96.549,49.519,96.549,48.007z M100.843,48.007v-0.016
		c0-1.043-0.705-1.91-1.694-1.91c-0.99,0-1.681,0.851-1.681,1.896v0.015c0,1.044,0.706,1.903,1.695,1.903
		C100.153,49.895,100.843,49.051,100.843,48.007z"/>
	<path fill="#3C3C3B" d="M102.612,45.305h3.71v0.86h-2.834v1.465h2.514v0.861h-2.514v2.187h-0.876V45.305z"/>
	<path fill="#3C3C3B" d="M108.994,45.305h2.236c0.57,0,1.019,0.171,1.304,0.477c0.221,0.237,0.335,0.53,0.335,0.891v0.016
		c0,0.644-0.342,0.989-0.712,1.196c0.583,0.215,0.989,0.576,0.989,1.306v0.014c0,0.96-0.733,1.475-1.844,1.475h-2.308
		L108.994,45.305L108.994,45.305z M111.992,46.825c0-0.423-0.312-0.684-0.875-0.684h-1.261v1.428h1.195
		c0.563,0,0.94-0.238,0.94-0.729V46.825z M111.244,48.367h-1.388v1.474h1.452c0.599,0,0.962-0.253,0.962-0.736v-0.016
		C112.271,48.637,111.936,48.367,111.244,48.367z"/>
	<path fill="#3C3C3B" d="M115.69,45.267h0.812l2.194,5.411h-0.927l-0.506-1.297h-2.357l-0.512,1.297h-0.897L115.69,45.267z
		 M116.944,48.544l-0.863-2.148l-0.854,2.148H116.944z"/>
	<path fill="#3C3C3B" d="M118.918,49.895l0.527-0.675c0.477,0.445,0.962,0.698,1.574,0.698c0.541,0,0.882-0.276,0.882-0.676v-0.016
		c0-0.384-0.198-0.59-1.124-0.821c-1.061-0.275-1.659-0.613-1.659-1.604v-0.015c0-0.922,0.711-1.558,1.702-1.558
		c0.727,0,1.302,0.236,1.809,0.675l-0.471,0.714c-0.448-0.36-0.896-0.553-1.353-0.553c-0.514,0-0.812,0.283-0.812,0.637v0.016
		c0,0.413,0.229,0.599,1.189,0.844c1.054,0.276,1.596,0.684,1.596,1.574v0.014c0,1.006-0.734,1.604-1.781,1.604
		C120.236,50.754,119.517,50.471,118.918,49.895z"/>
	<path fill="#3C3C3B" d="M128.092,50.838l-0.598-0.576c-0.421,0.316-0.933,0.508-1.518,0.508c-1.531,0-2.6-1.251-2.6-2.763v-0.016
		c0-1.512,1.083-2.778,2.614-2.778c1.532,0,2.6,1.252,2.6,2.764v0.015c0,0.605-0.185,1.182-0.506,1.65l0.569,0.521L128.092,50.838z
		 M126.853,49.648l-0.861-0.79l0.562-0.69l0.876,0.859c0.156-0.292,0.242-0.637,0.242-1.021V47.99c0-1.043-0.705-1.91-1.695-1.91
		s-1.682,0.852-1.682,1.896v0.014c0,1.045,0.705,1.904,1.696,1.904C126.318,49.895,126.61,49.803,126.853,49.648z"/>
	<path fill="#3C3C3B" d="M129.36,48.398v-3.093h0.878v3.055c0,0.997,0.476,1.526,1.259,1.526c0.777,0,1.255-0.498,1.255-1.488
		v-3.093h0.875v3.047c0,1.604-0.841,2.41-2.143,2.41C130.188,50.762,129.36,49.955,129.36,48.398z"/>
	<path fill="#3C3C3B" d="M134.618,45.305h3.697v0.845h-2.82v1.397h2.499v0.844h-2.499v1.442h2.856v0.845h-3.733V45.305z"/>
	<path fill="#3C3C3B" d="M141.101,45.306h2.223c0.626,0,1.117,0.2,1.438,0.537c0.264,0.292,0.413,0.691,0.413,1.159v0.015
		c0,0.884-0.492,1.412-1.183,1.627l1.347,2.034h-1.04l-1.226-1.872h-1.097v1.872h-0.876V45.306z M143.259,47.969
		c0.627,0,1.026-0.354,1.026-0.898v-0.015c0-0.576-0.385-0.891-1.034-0.891h-1.274v1.804H143.259z"/>
	<path fill="#3C3C3B" d="M146.038,45.305h3.695v0.845h-2.82v1.397h2.501v0.844h-2.501v1.442h2.856v0.845h-3.731V45.305z"/>
	<path fill="#3C3C3B" d="M150.263,49.895l0.526-0.675c0.477,0.445,0.962,0.698,1.575,0.698c0.54,0,0.883-0.276,0.883-0.676v-0.016
		c0-0.384-0.2-0.59-1.126-0.821c-1.062-0.275-1.659-0.613-1.659-1.604v-0.015c0-0.922,0.713-1.558,1.702-1.558
		c0.727,0,1.303,0.236,1.81,0.675l-0.471,0.714c-0.448-0.36-0.898-0.553-1.354-0.553c-0.512,0-0.812,0.283-0.812,0.637v0.016
		c0,0.413,0.228,0.599,1.189,0.844c1.055,0.276,1.595,0.684,1.595,1.574v0.014c0,1.006-0.733,1.604-1.779,1.604
		C151.58,50.754,150.86,50.471,150.263,49.895z"/>
	<path fill="#3C3C3B" d="M154.942,45.305h3.696v0.845h-2.82v1.397h2.5v0.844h-2.5v1.442h2.856v0.845h-3.732V45.305z"/>
	<path fill="#3C3C3B" d="M161.268,45.267h0.812l2.194,5.411h-0.926l-0.506-1.297h-2.358l-0.513,1.297h-0.897L161.268,45.267z
		 M162.522,48.544l-0.862-2.148l-0.854,2.148H162.522z"/>
	<path fill="#3C3C3B" d="M164.915,45.306h2.223c0.626,0,1.118,0.2,1.439,0.537c0.263,0.292,0.412,0.691,0.412,1.159v0.015
		c0,0.884-0.49,1.412-1.183,1.627l1.347,2.034h-1.039l-1.226-1.872h-1.098v1.872h-0.876V45.306z M167.073,47.969
		c0.627,0,1.026-0.354,1.026-0.898v-0.015c0-0.576-0.384-0.891-1.033-0.891h-1.275v1.804H167.073z"/>
	<path fill="#3C3C3B" d="M169.632,48.007v-0.016c0-1.526,1.062-2.778,2.571-2.778c0.918,0,1.474,0.346,1.952,0.837l-0.563,0.698
		c-0.398-0.399-0.825-0.668-1.396-0.668c-0.946,0-1.645,0.845-1.645,1.896v0.015c0,1.053,0.69,1.904,1.645,1.904
		c0.612,0,1.005-0.261,1.433-0.691l0.562,0.614c-0.52,0.583-1.09,0.952-2.021,0.952C170.715,50.77,169.632,49.55,169.632,48.007z"/>
	<path fill="#3C3C3B" d="M175.039,45.305h0.876v2.233h2.378v-2.233h0.877v5.373h-0.877v-2.264h-2.378v2.264h-0.876V45.305z"/>
	<path fill="#3C3C3B" d="M66.714,58.584c-0.427,0.43-0.925,0.698-1.524,0.698c-0.934,0-1.631-0.606-1.631-1.535v-0.016
		c0-0.69,0.377-1.189,1.061-1.504c-0.285-0.393-0.413-0.729-0.413-1.121v-0.015c0-0.722,0.541-1.351,1.432-1.351
		c0.791,0,1.325,0.576,1.325,1.297v0.015c0,0.707-0.435,1.129-1.097,1.396l0.854,0.937c0.193-0.307,0.371-0.659,0.535-1.036
		l0.662,0.377c-0.199,0.429-0.42,0.852-0.676,1.221l0.791,0.859l-0.655,0.506L66.714,58.584z M66.216,58.031l-1.111-1.221
		c-0.463,0.216-0.663,0.544-0.663,0.891v0.015c0,0.453,0.349,0.783,0.834,0.783C65.618,58.499,65.931,58.322,66.216,58.031z
		 M66.188,55.106v-0.015c0-0.361-0.235-0.606-0.563-0.606c-0.356,0-0.598,0.269-0.598,0.645v0.017c0,0.268,0.1,0.467,0.378,0.797
		C65.917,55.743,66.188,55.49,66.188,55.106z"/>
	<path fill="#3C3C3B" d="M71.53,54.708h-1.581v-0.875h4.045v0.875h-1.581v4.497H71.53V54.708z"/>
	<path fill="#3C3C3B" d="M74.708,53.833h3.696v0.844h-2.82v1.396h2.5v0.846h-2.5v1.442h2.856v0.844h-3.732V53.833z"/>
	<path fill="#3C3C3B" d="M79.046,56.534v-0.016c0-1.526,1.061-2.777,2.571-2.777c0.919,0,1.474,0.345,1.952,0.836l-0.563,0.698
		c-0.399-0.398-0.826-0.668-1.396-0.668c-0.947,0-1.646,0.845-1.646,1.896v0.016c0,1.052,0.691,1.903,1.646,1.903
		c0.613,0,1.004-0.261,1.432-0.69l0.562,0.613c-0.52,0.584-1.089,0.951-2.022,0.951C80.129,59.297,79.046,58.076,79.046,56.534z"/>
	<path fill="#3C3C3B" d="M84.453,53.833h0.876v2.233h2.379v-2.233h0.876v5.372h-0.876v-2.264h-2.379v2.264h-0.876V53.833z"/>
	<path fill="#3C3C3B" d="M89.796,53.833h0.812l2.67,3.714v-3.714h0.861v5.372h-0.733l-2.749-3.822v3.822h-0.861V53.833z"/>
	<path fill="#3C3C3B" d="M95.131,56.534v-0.016c0-1.512,1.083-2.777,2.614-2.777c1.532,0,2.6,1.251,2.6,2.762v0.016
		c0,1.513-1.083,2.778-2.614,2.778C96.201,59.297,95.131,58.046,95.131,56.534z M99.426,56.534v-0.016
		c0-1.043-0.705-1.911-1.695-1.911c-0.99,0-1.681,0.853-1.681,1.896v0.016c0,1.044,0.706,1.903,1.695,1.903
		C98.736,58.422,99.426,57.577,99.426,56.534z"/>
	<path fill="#3C3C3B" d="M101.336,53.833h0.875v4.512h2.622v0.86h-3.498V53.833z"/>
	<path fill="#3C3C3B" d="M105.169,56.534v-0.016c0-1.512,1.083-2.777,2.614-2.777c1.53,0,2.6,1.251,2.6,2.762v0.016
		c0,1.513-1.082,2.778-2.614,2.778C106.237,59.297,105.169,58.046,105.169,56.534z M109.465,56.534v-0.016
		c0-1.043-0.705-1.911-1.696-1.911c-0.99,0-1.681,0.853-1.681,1.896v0.016c0,1.044,0.705,1.903,1.695,1.903
		S109.465,57.577,109.465,56.534z"/>
	<path fill="#3C3C3B" d="M111.152,56.534v-0.016c0-1.504,1.069-2.777,2.571-2.777c0.87,0,1.403,0.26,1.916,0.729l-0.555,0.714
		c-0.385-0.354-0.762-0.576-1.396-0.576c-0.919,0-1.618,0.868-1.618,1.896v0.016c0,1.105,0.678,1.918,1.695,1.918
		c0.471,0,0.898-0.161,1.204-0.405v-1.006h-1.274v-0.82h2.121v2.255c-0.49,0.453-1.195,0.837-2.079,0.837
		C112.178,59.297,111.152,58.1,111.152,56.534z"/>
	<path fill="#3C3C3B" d="M118.284,57.088l-1.98-3.255h1.04l1.388,2.372l1.41-2.372h1.005l-1.979,3.231v2.141h-0.883V57.088z"/>
	<path fill="#3C3C3B" d="M125.394,53.795h0.812l2.193,5.41h-0.926l-0.506-1.297h-2.357l-0.513,1.297h-0.897L125.394,53.795z
		 M126.646,57.071l-0.861-2.148l-0.854,2.148H126.646z"/>
	<path fill="#3C3C3B" d="M129.04,53.833h0.877v4.512h2.621v0.86h-3.498V53.833z"/>
	<path fill="#3C3C3B" d="M133.236,53.833h0.875v4.512h2.622v0.86h-3.497V53.833z"/>
	<path fill="#3C3C3B" d="M138.358,53.833h-0.877v5.372h0.877V53.833z"/>
	<path fill="#3C3C3B" d="M141.243,53.795h0.812l2.193,5.41h-0.926l-0.506-1.297h-2.357l-0.513,1.297h-0.898L141.243,53.795z
		 M142.496,57.071l-0.861-2.148l-0.855,2.148H142.496z"/>
	<path fill="#3C3C3B" d="M144.891,53.833h0.812l2.672,3.714v-3.714h0.861v5.372h-0.734l-2.748-3.822v3.822h-0.862V53.833z"/>
	<path fill="#3C3C3B" d="M150.084,56.534v-0.016c0-1.526,1.062-2.777,2.571-2.777c0.918,0,1.475,0.345,1.952,0.836l-0.563,0.698
		c-0.398-0.398-0.826-0.668-1.396-0.668c-0.947,0-1.646,0.845-1.646,1.896v0.016c0,1.052,0.692,1.903,1.646,1.903
		c0.613,0,1.004-0.261,1.432-0.69l0.562,0.613c-0.52,0.584-1.09,0.951-2.021,0.951C151.167,59.297,150.084,58.076,150.084,56.534z"
		/>
	<path fill="#3C3C3B" d="M155.348,53.833h3.697v0.844h-2.821v1.396h2.501v0.846h-2.501v1.442h2.856v0.844h-3.732V53.833z"/>
</g>
</svg>
